[gd_resource type="StyleBoxFlat" format=3 uid="uid://bq7rjpm38pao7"]

[resource]
resource_local_to_scene = true
bg_color = Color(0.025, 0.75, 0.1, 0.65)
corner_radius_top_left = 3
corner_radius_top_right = 3
corner_radius_bottom_right = 3
corner_radius_bottom_left = 3
anti_aliasing = false
