[gd_resource type="Environment" load_steps=3 format=3 uid="uid://nw62ce5cglvs"]

[sub_resource type="ProceduralSkyMaterial" id="ProceduralSkyMaterial_8mbvu"]
sky_top_color = Color(0, 0.584314, 0.670588, 1)
sky_horizon_color = Color(0.819608, 0.592157, 0.556863, 1)
sky_curve = 0.235375
ground_bottom_color = Color(0.819608, 0.592157, 0.556863, 1)
ground_horizon_color = Color(0.819608, 0.592157, 0.556863, 1)
ground_curve = 0.02

[sub_resource type="Sky" id="Sky_mobku"]
sky_material = SubResource("ProceduralSkyMaterial_8mbvu")

[resource]
background_mode = 2
sky = SubResource("Sky_mobku")
tonemap_mode = 3
tonemap_exposure = 0.85
volumetric_fog_density = 0.005
adjustment_brightness = 0.85
