[gd_scene load_steps=2 format=3 uid="uid://ds1hekx1dq1bg"]

[ext_resource type="Script" path="res://components/explosive_damage_component.gd" id="1_2uehk"]

[node name="ExplosiveDamage" type="Area3D"]
collision_layer = 0
collision_mask = 13
monitorable = false
script = ExtResource("1_2uehk")
