[gd_scene load_steps=4 format=3 uid="uid://c8co0qa2omjmh"]

[ext_resource type="Script" path="res://entities/weapons/space_gun/space_gun.gd" id="1_6sm4s"]
[ext_resource type="PackedScene" uid="uid://dn1tcakam5egs" path="res://entities/weapons/space_gun/projectile.tscn" id="2_wvneg"]
[ext_resource type="PackedScene" uid="uid://bjcn37ops3bro" path="res://entities/weapons/space_gun/assets/disclauncher.glb" id="3_5k2xm"]

[node name="SpaceGun" type="Node3D"]
script = ExtResource("1_6sm4s")
PROJECTILE = ExtResource("2_wvneg")

[node name="disclauncher" parent="." instance=ExtResource("3_5k2xm")]

[node name="Nozzle" type="Node3D" parent="."]
transform = Transform3D(1, 0, 0, 0, 1, 0, 0, 0, 1, 0, 0.111355, 0.540839)
